[gd_scene load_steps=4 format=2]

[ext_resource path="res://Assets/Assets/Tilesheet/monochrome_transparent_packed.png" type="Texture" id=1]
[ext_resource path="res://Entities/House/House.gd" type="Script" id=2]

[sub_resource type="RectangleShape2D" id=1]
extents = Vector2( 8, 8 )

[node name="House" type="Area2D"]
scale = Vector2( 3, 3 )
collision_layer = 64
collision_mask = 32
script = ExtResource( 2 )

[node name="Sprite" type="Sprite" parent="."]
texture = ExtResource( 1 )
hframes = 48
vframes = 22
frame = 499

[node name="Area" type="CollisionShape2D" parent="."]
shape = SubResource( 1 )

[connection signal="body_entered" from="." to="." method="_on_body_entered"]
